Individual #1
…
filter(dat, dat$HOUR <= 24) %>% group_by(HOUR) %>% summarise(count = n()) 

## # A tibble: 24 x 2
##     HOUR count
##    <int> <int>
##  1     0  1734
##  2     1  1505
##  3     2  1630
##  4     3  1223
##  5     4  1076
##  6     5  1532
##  7     6  1958
##  8     7  1894
##  9     8  1527
## 10     9  1561
## #  with 14 more rows
…
