lab5
…
Conclusion: From the bar plot, we can conclude that Friday, Saturday and Sunday of a week have more accidents happen than others.

Q2:What time of the day do accidents happen (use variable HOUR)?

unique(accident$HOUR)

##  [1] 23 14 20 16 18 17  4 21  0  1  7 19  8 11  6 13  3  2  9  5 12 15 22
## [24] 10 99

Hour24 <- accident %>% filter(HOUR <= 24)
(GroupHour <- Hour24 %>% group_by(HOUR) %>% summarise(n=n()))

## # A tibble: 24 x 2
##     HOUR     n
##    <int> <int>
##  1     0  1321
##  2     1  1177
##  3     2  1241
##  4     3   957
##  5     4   813
##  6     5  1065
##  7     6  1282
##  8     7  1162
##  9     8   945
## 10     9   929
## #  with 14 more rows
…
## 
## Attaching package: 'maps'

## The following object is masked from 'package:purrr':
## 
##     map

#Rename counties long and lat to LONGITUD, LATITUDE
counties <- counties %>% rename(LONGITUD =long)
counties <- counties %>% rename(LATITUDE = lat)
#Create var accident1 to summarize number of accidents by each COUNTY
(accident1 <- accident %>% group_by(COUNTY) %>% summarise(`Number Of Accident`=n()))

## # A tibble: 283 x 2
##    COUNTY `Number Of Accident`
##     <int>                <int>
##  1      1                  773
##  2      3                  796
##  3      5                  643
##  4      6                   13
##  5      7                  392
##  6      9                  466
##  7     11                  541
##  8     12                   15
##  9     13                  870
## 10     14                    3
## #  with 273 more rows
…
