team
…
filter(dat, dat$HOUR <= 24) %>% group_by(HOUR) %>% summarise(count = n()) 

## # A tibble: 24 x 2
##     HOUR count
##    <int> <int>
##  1     0  1734
##  2     1  1505
##  3     2  1630
##  4     3  1223
##  5     4  1076
##  6     5  1532
##  7     6  1958
##  8     7  1894
##  9     8  1527
## 10     9  1561
## #  with 14 more rows
…
## 
## Attaching package: 'maps'

## The following object is masked from 'package:plyr':
## 
##     ozone

#Rename counties long and lat to LONGITUD, LATITUDE
counties <- counties %>% rename(LONGITUD =long)
counties <- counties %>% rename(LATITUDE = lat)
accident <- acc
#Create var accident1 to summarize number of accidents by each COUNTY
(accident1 <- accident %>% group_by(COUNTY) %>% summarise(`Number Of Accident`=n()))

## # A tibble: 283 x 2
##    COUNTY `Number Of Accident`
##     <int>                <int>
##  1      1                  773
##  2      3                  796
##  3      5                  643
##  4      6                   13
##  5      7                  392
##  6      9                  466
##  7     11                  541
##  8     12                   15
##  9     13                  870
## 10     14                    3
## #  with 273 more rows
…
